{
  "id": 1009351,
  "name": "Hulk",
  "description": "Caught in a gamma bomb explosion while trying to save the life of a teenager",
  "thumbnail": {
    "path": "http://i.annihil.us/u/prod/marvel/i/mg/5/a0/538615ca33ab0",
    "extension": "jpg"
  },
  "sincronized": false,
  "series": {
    "items": [{"name": "5 Ronin (2010)"}]
  }
}
